<?xml version="1.0" encoding="UTF-8" standalone="no"?>
<svg
   xmlns:dc="http://purl.org/dc/elements/1.1/"
   xmlns:cc="http://creativecommons.org/ns#"
   xmlns:rdf="http://www.w3.org/1999/02/22-rdf-syntax-ns#"
   xmlns:svg="http://www.w3.org/2000/svg"
   xmlns="http://www.w3.org/2000/svg"
   xmlns:sodipodi="http://sodipodi.sourceforge.net/DTD/sodipodi-0.dtd"
   xmlns:inkscape="http://www.inkscape.org/namespaces/inkscape"
   width="210mm"
   height="297mm"
   viewBox="0 0 210 297"
   version="1.1"
   id="svg8"
   inkscape:version="1.0.2-2 (e86c870879, 2021-01-15)"
   sodipodi:docname="mujer.svg">
  <defs
     id="defs2" />
  <sodipodi:namedview
     id="base"
     pagecolor="#ffffff"
     bordercolor="#666666"
     borderopacity="1.0"
     inkscape:pageopacity="0.0"
     inkscape:pageshadow="2"
     inkscape:zoom="0.7"
     inkscape:cx="371.74103"
     inkscape:cy="537.31013"
     inkscape:document-units="mm"
     inkscape:current-layer="layer1"
     inkscape:document-rotation="0"
     showgrid="true"
     inkscape:lockguides="false"
     inkscape:window-width="1920"
     inkscape:window-height="1046"
     inkscape:window-x="-11"
     inkscape:window-y="-11"
     inkscape:window-maximized="1">
    <inkscape:grid
       type="xygrid"
       id="grid10" />
  </sodipodi:namedview>
  <metadata
     id="metadata5">
    <rdf:RDF>
      <cc:Work
         rdf:about="">
        <dc:format>image/svg+xml</dc:format>
        <dc:type
           rdf:resource="http://purl.org/dc/dcmitype/StillImage" />
        <dc:title></dc:title>
      </cc:Work>
    </rdf:RDF>
  </metadata>
  <g
     inkscape:label="Capa 1"
     inkscape:groupmode="layer"
     id="layer1">
    <circle
       style="fill:#ff6600;fill-rule:evenodd;stroke-width:0.15625"
       id="path12"
       cx="25"
       cy="25"
       r="25" />
    <ellipse
       style="fill:#f4e3d7;stroke-width:0.214087"
       id="path14"
       cx="15"
       cy="15.5"
       rx="5"
       ry="5.5" />
    <ellipse
       style="fill:#f4e3d7;stroke-width:0.214087"
       id="path14-3"
       cx="31.404171"
       cy="16.029161"
       rx="5"
       ry="5.5" />
    <path
       style="fill:#550000;stroke-width:0.264583"
       id="path44"
       d="m 12.746543,53.796789 c 0.227222,5.551676 -1.871248,10.815894 -3.841437,15.897614 -2.806678,6.932829 -6.2808094,13.563766 -10.069323,20.003418 -0.2072366,0.333856 -2.2497253,3.595171 -2.5570465,4.187483 -0.2069089,0.398783 -0.3353196,0.833618 -0.5029795,1.250427 0.00366,0.0084 1.1890018,-0.509424 1.1853402,-0.517806 v 0 c 0.4917394,-0.559938 1.0167905,-1.092292 1.4752181,-1.679813 1.0722218,-1.374164 1.89501465,-2.823628 2.8034237,-4.308745 3.7529828,-6.430317 7.1403951,-13.083302 9.935439,-19.98913 1.945475,-5.168297 3.979498,-10.493465 3.964855,-16.09685 -0.0089,-0.01693 -2.402353,1.236477 -2.39349,1.253402 z" />
    <path
       style="fill:#550000;stroke-width:0.264583"
       id="path46"
       d="m 39.176512,53.904914 c -0.26372,-0.792517 -0.400989,-1.61127 -0.833413,-2.338533 -0.08498,-0.142915 -0.150546,-0.45416 -0.305634,-0.394213 -3.076784,1.189275 -2.70229,0.791125 -2.309775,2.888167 0.959868,3.868394 1.787602,7.820017 3.632451,11.394009 1.781829,3.4519 3.243834,5.215694 5.528389,8.375369 2.891648,3.731244 6.065142,7.239424 9.436389,10.541932 1.794108,1.757526 3.378205,3.292977 5.509823,4.628605 0.848037,0.53136 1.783845,0.907708 2.675766,1.361564 0.0043,0.0069 0.974825,-0.602192 0.970518,-0.609052 v 0 c -0.518734,-0.684197 -0.993492,-1.404078 -1.556202,-2.052588 -1.474116,-1.698876 -3.387818,-3.37875 -4.985065,-4.930081 -3.384754,-3.287459 -6.673612,-6.681177 -9.602973,-10.388338 -2.280637,-3.121258 -3.739838,-4.900507 -5.594366,-8.269677 -1.931249,-3.50856 -2.980594,-7.371445 -3.653663,-11.294326 -0.133918,-1.812163 0.250778,-2.039176 -2.401842,-0.246873 -0.122298,0.08263 0.194313,0.22455 0.268234,0.352301 0.127895,0.22102 0.209934,0.466267 0.334442,0.689211 0.139448,0.2497 0.304175,0.484417 0.456266,0.726627 0.127158,0.235874 0.25432,0.471747 0.381481,0.707621 0.0081,0.0145 2.057247,-1.127237 2.049174,-1.141725 z" />
    <path
       style="fill:#550000;stroke-width:0.264583"
       id="path48"
       d="m -6.7211918,93.656919 c 0.3359314,-0.128675 0.66593,-0.274064 1.0077945,-0.386027 3.5460513,-1.161378 7.1852855,-2.094455 10.7692503,-3.124563 8.706684,-2.502484 3.3813586,-0.992499 12.581222,-3.573076 8.94616,-2.44539 18.01551,-4.542329 27.235715,-5.640305 4.08921,-0.486958 5.413063,-0.484627 9.324102,-0.664038 3.409455,-0.17516 6.685381,0.107719 9.891641,1.268396 0.363728,-0.03632 0.727456,-0.07264 1.091184,-0.108958 0.0016,0.0026 0.3746,-0.224594 0.372991,-0.227232 v 0 c 0.130532,-0.282017 0.261064,-0.564033 0.391594,-0.846053 -0.130778,-0.171929 -0.233056,-0.369866 -0.392335,-0.515786 -0.946115,-0.866746 -2.347335,-0.985978 -3.552563,-1.09905 -2.276329,-0.213562 -3.07559,-0.149593 -5.510371,-0.15284 -1.393783,0.06452 -2.790293,0.08516 -4.181353,0.193554 -11.115887,0.866185 -22.047255,3.388553 -32.772468,6.332783 -5.712729,1.582537 -11.4231162,3.174267 -17.1468261,4.716822 -1.8585962,0.500896 -3.7325908,0.945161 -5.5835746,1.473494 -0.3278696,0.09359 -0.645482,0.219953 -0.9682231,0.32993 -0.014303,-0.0181 -2.5720844,2.004862 -2.55778,2.022949 z" />
    <path
       style="fill:#550000;stroke-width:0.264583"
       id="path50"
       d="m 16.019115,93.055256 c -0.09875,0.641967 -0.182318,1.286457 -0.296256,1.925905 -0.184062,1.032991 -0.42112,2.056225 -0.597588,3.090542 -0.72541,4.251767 -1.190996,8.553967 -1.65047,12.841057 -0.06201,0.4792 -0.124017,0.95841 -0.186025,1.43761 -0.04427,0.0516 -0.178683,0.20478 -0.132821,0.15464 0.783722,-0.85682 1.870758,-1.51548 2.346467,-2.57476 0.349559,-0.77837 -0.05949,-1.7064 -0.04075,-2.55945 0.05502,-2.50467 0.256467,-4.25932 0.481077,-6.76741 0.400617,-3.277407 0.349433,-3.102673 0.836011,-6.204945 0.168562,-1.074703 0.517229,-2.38802 0.391729,-3.530806 -0.02194,-0.199837 -0.151067,-0.372615 -0.226602,-0.558924 -0.0033,-0.0065 -0.918504,0.45534 -0.915238,0.461811 v 0 c -0.515425,1.470303 -0.708753,2.896526 -0.912749,4.446511 -0.364006,2.765758 -0.418158,3.289496 -0.765586,6.179003 -0.813152,8.24387 0.09005,-1.11439 -0.618632,6.84693 -0.08077,0.90742 -0.76964,1.96038 -0.266703,2.71998 0.4248,0.64159 1.517957,0.26668 2.284963,0.32826 0.0497,0.004 -0.01837,-0.098 -0.02755,-0.14702 0.04372,-0.4701 0.08743,-0.9402 0.13115,-1.4103 0.495723,-4.26257 1.025449,-8.51915 1.548501,-12.77835 0.121208,-0.986986 0.204293,-1.978763 0.344022,-2.963296 0.09301,-0.655349 0.235901,-1.302645 0.353852,-1.953969 -0.0072,-0.01471 -2.087992,1.002268 -2.080802,1.016981 z" />
    <path
       style="fill:#550000;stroke-width:0.264583"
       id="path52"
       d="m 35.564998,93.549942 c -0.228421,2.098488 -0.322639,4.200351 -0.205029,6.309024 0.03486,0.624954 0.0344,1.256044 0.144471,1.872214 0.09867,0.55234 0.318854,1.07592 0.478282,1.61387 0.673452,1.70764 0.24316,0.95632 1.229738,2.28787 0.0033,0.006 0.859398,-0.4582 0.856115,-0.46426 v 0 c 0.130876,-1.8892 0.109739,-0.90784 0.04121,-2.94448 2.49e-4,-3.344791 -0.415753,-6.710331 0.217302,-10.03151 -0.0096,-0.01953 -2.771685,1.337741 -2.762089,1.357272 z" />
    <path
       style="fill:#550000;stroke-width:0.264583"
       id="path54"
       d="m 37.951809,92.054586 c 0.01685,-1.931675 0.08945,-3.86747 0.05704,-5.799288 -0.866002,0.569815 -1.930151,0.916588 -2.598004,1.709441 -0.310695,0.368845 -0.05538,0.963319 -0.05959,1.445567 -0.007,0.798724 0.01008,1.59753 0.02604,2.396128 0.05288,2.645669 0.156829,5.278672 0.359751,7.916708 0.04253,0.613578 0.142539,2.551078 0.300612,3.303098 0.373951,1.77904 2.762107,-0.87629 3.407624,-1.45427 0.199755,-0.17885 -0.13263,-0.52024 -0.176739,-0.78472 -0.05326,-0.31935 -0.07666,-0.64297 -0.114982,-0.964458 -0.288468,-0.150211 -0.576935,-0.300421 -0.865402,-0.450633 -0.0033,-0.0064 -0.908397,0.464535 -0.905066,0.470935 v 0 c -0.239749,0.418856 -0.479499,0.837706 -0.719248,1.256566 -0.02074,0.34438 -0.0079,0.69243 -0.0622,1.03314 -0.04798,0.30105 -0.545216,0.92136 -0.242954,0.8817 1.057791,-0.13884 2.030773,-0.69878 2.95179,-1.23723 0.123886,-0.0724 -0.107437,-0.26758 -0.13798,-0.4078 -0.155446,-0.71359 -0.436023,-2.580394 -0.527376,-3.159686 -0.248203,-2.598909 -0.505523,-5.173752 -0.559599,-7.786211 -0.01648,-0.79579 -0.01852,-1.591876 -0.01529,-2.38783 0.0019,-0.468498 0.488763,-1.307113 0.03064,-1.405171 -0.865619,-0.185277 -1.671582,0.583367 -2.507371,0.875052 0.213711,1.849395 0.170579,3.717041 0.373165,5.567468 0.0072,0.01405 1.992368,-1.004467 1.985166,-1.018506 z" />
    <path
       style="fill:#550000;stroke-width:0.264583"
       id="path56"
       d="m 3.9191144,56.849329 c -2.7281676,3.952542 -5.8760943,7.567399 -9.1657608,11.05567 -1.5934277,1.723121 -3.3522033,3.276032 -5.0618436,4.878671 0.01802,0.784744 3.276626,-0.491659 2.2159792,-0.962694 -0.00132,-0.0033 -0.4695404,0.18347 -0.4682199,0.18678 v 0 c -0.2848097,0.156236 -1.1718105,0.537961 -0.8544295,0.468709 1.028378,-0.224391 1.7754864,-0.565833 2.581262,-1.108157 1.7492027,-1.486773 3.2728807,-3.224713 4.8924835,-4.845121 3.2502692,-3.496268 6.4372157,-7.083746 9.0612497,-11.084978 -0.00998,-0.02262 -3.2106986,1.388488 -3.2007206,1.41112 z" />
    <path
       style="fill:#550000;stroke-width:0.264583"
       id="path58"
       d="m 45.703243,50.663239 c 3.093998,2.357945 6.281944,4.592068 9.47506,6.813452 0.495612,0.339066 0.98901,0.681389 1.486834,1.017201 0.896477,0.604721 1.152522,0.790951 2.026007,1.268926 0.154001,0.08427 0.324475,0.328554 0.472059,0.233495 2.733278,-1.760482 2.604818,-1.397683 1.234266,-2.570441 -1.971773,-1.612746 -4.091803,-3.033082 -6.095865,-4.603662 -3.216273,-2.520585 0.586597,0.340796 -2.166403,-1.71213 -0.181412,-0.169439 -0.388652,-0.314888 -0.544232,-0.508314 -0.06111,-0.07597 -0.05919,-0.185799 -0.08878,-0.278697 -0.741561,0.57322 -1.789806,0.889376 -2.224683,1.719662 -0.213167,0.406985 0.916575,-0.06476 1.374863,-0.09715 0.0065,0.0097 1.379381,-0.904576 1.372914,-0.914286 v 0 c -0.07549,-0.263213 0.03848,-0.858745 -0.226483,-0.789644 -3.632578,0.947349 -3.723449,1.172991 -2.322383,2.55111 1.995427,1.488012 -0.126698,-0.05991 2.338753,1.607487 2.128067,1.439227 4.195027,2.97053 6.298126,4.445518 1.307494,1.185281 0.782002,1.114068 3.337226,-0.375623 0.152001,-0.08862 -0.340124,-0.0975 -0.497747,-0.175676 -1.252244,-0.621104 -2.344682,-1.536366 -3.545163,-2.241026 -1.901084,-1.285772 -3.781811,-2.590014 -5.62479,-3.958487 -0.459081,-0.340883 -2.502397,-1.900134 -3.065759,-2.287169 -0.280006,-0.192365 -0.580945,-0.352327 -0.871418,-0.528492 -0.0098,-0.01516 -2.152185,1.368795 -2.142398,1.383943 z" />
  </g>
</svg>
